{
    "app_name": "GO Group Virtual OMSI Tool",
    "icon_path_windows": "resources/icon.ico",
    "icon_path_linux": "resources/icon.png",
    "environments": [
      {
        "arch": "amd64",
        "os": "windows",
        "env": {
          "CC": "x86_64-w64-mingw32-gcc",
          "CXX": "x86_64-w64-mingw32-g++",
          "CGO_ENABLED": "1"
        }
      }
    ],
    "output_path": "../build",
    "show_windows_console": true
}